m1
…
0 of 6000 iterations saturated the maximum tree depth of 10.

check_energy(sf1)

E-BFMI indicated no pathological behavior.

check_divergences(sf1)

0 of 6000 iterations ended with a divergence.

rhats1 <- rhat(sf1)
mcmc_rhat_data(rhat = rhats1)

# A tibble: 4,391 x 5
   diagnostic parameter   value rating description   
   <chr>      <fct>       <dbl> <fct>  <chr>         
 1 rhat       y_rep[157]  0.999 low    hat(R) <= 1.05
 2 rhat       y_rep[633]  0.999 low    hat(R) <= 1.05
 3 rhat       y_rep[86]   0.999 low    hat(R) <= 1.05
 4 rhat       y_rep[576]  0.999 low    hat(R) <= 1.05
 5 rhat       y_rep[1358] 0.999 low    hat(R) <= 1.05
 6 rhat       y_rep[396]  0.999 low    hat(R) <= 1.05
 7 rhat       y_rep[1386] 0.999 low    hat(R) <= 1.05
 8 rhat       y_rep[635]  0.999 low    hat(R) <= 1.05
 9 rhat       y_rep[969]  0.999 low    hat(R) <= 1.05
10 rhat       y_rep[1321] 0.999 low    hat(R) <= 1.05
#  with 4,381 more rows

neff_ratios1 <- neff_ratio(sf1)
mcmc_neff_data(neff_ratios1)

# A tibble: 4,391 x 5
   diagnostic parameter    value rating description    
   <chr>      <fct>        <dbl> <fct>  <chr>          
 1 neff_ratio lp__         0.472 ok     N[eff]/N <= 0.5
 2 neff_ratio beta[3]      0.588 high   N[eff]/N > 0.5 
 3 neff_ratio log_lik[226] 0.588 high   N[eff]/N > 0.5 
 4 neff_ratio log_lik[333] 0.594 high   N[eff]/N > 0.5 
 5 neff_ratio log_lik[754] 0.597 high   N[eff]/N > 0.5 
 6 neff_ratio mu[226]      0.600 high   N[eff]/N > 0.5 
 7 neff_ratio mu[1155]     0.604 high   N[eff]/N > 0.5 
 8 neff_ratio mu[754]      0.605 high   N[eff]/N > 0.5 
 9 neff_ratio mu[333]      0.606 high   N[eff]/N > 0.5 
10 neff_ratio mu[559]      0.607 high   N[eff]/N > 0.5 
#  with 4,381 more rows
…
